[
    {
        "name" : "Damascuse",
        "country" : "SYR"
    },
    {
        "name" : "Alswaida",
        "country" : "SYR"
    },
    {
        "name" : "Alepo",
        "country" : "SYR"
    },
    {
        "name"  : "Latakia",
        "country" : "SYR"
    },
    {
        "name" : "Tartose",
        "country" : "SYR"
    },
    {
        "name" : "New York",
        "country" : "USA"
    },
    {
        "name" : "Washonton",
        "country" : "USA"
    },
    {
        "name" : "Chegago",
        "country" : "USA"
    },
    {
        "name" : "Los Anglus",
        "country" : "USA"
    },
    {
        "name" : "London",
        "country" : "UK"
    },
    {
        "name" : "Dubai",
        "country" : "UAE"
    },
    {
        "name" : "Abou Dabi",
        "country" : "UAE"
    },
    {
        "name" : "Beirut",
        "country" : "LBN"
    },
    {
        "name" : "Tarablus",
        "country" : "LBN"
    },
    {
        "name" : "Luxembourg",
        "country" : "GRM"
    },
    {
        "name" : "Berlin",
        "country" : "GRM"
    }
]
